HW2-explore and wrangle
…
jcitation_tidy <- jcitation_all %>%
  distinct(caseIssuesId, .keep_all = TRUE) %>%
  mutate(difference = majVotes - minVotes) %>%
  group_by(term, difference) %>%
  summarize(number = n()) %>%
  filter(difference == 1) %>%
  left_join(jcitation_ref, by = "term") %>%
  mutate(percentage = number / totalNumber)

jcitation_tidy

## Source: local data frame [155 x 5]
## Groups: term [155]
## 
##     term difference number totalNumber percentage
##    <int>      <int>  <int>       <int>      <dbl>
## 1   1794          1      1           2 0.50000000
## 2   1816          1      1          42 0.02380952
## 3   1818          1      1          38 0.02631579
## 4   1822          1      1          32 0.03125000
## 5   1827          1      2          47 0.04255319
## 6   1830          1      1          57 0.01754386
## 7   1837          1      1          20 0.05000000
## 8   1845          1      2          52 0.03846154
## 9   1849          1      2          42 0.04761905
## 10  1850          1      6         168 0.03571429
## # ... with 145 more rows
…
jcitation_ref$ifUnanimous[jcitation_ref$ifUnanimous > 0] <- "nonUnanimous"
jcitation_ref$ifUnanimous[jcitation_ref$ifUnanimous == 0] <- "unanimous"

jcitation_ref <- jcitation_ref %>%
  group_by(term, ifUnanimous) %>%
  summarize(totalNumber = n()) %>%
  spread(key = ifUnanimous, value = totalNumber) %>%
  mutate(totalNumber = nonUnanimous + unanimous)

jcitation_ref

## Source: local data frame [30 x 4]
## Groups: term [30]
## 
##     term nonUnanimous unanimous totalNumber
##    <int>        <int>     <int>       <int>
## 1   1986          108        53         161
## 2   1987           85        68         153
## 3   1988           89        63         152
## 4   1989           92        48         140
## 5   1990           74        55         129
## 6   1991           73        47         120
## 7   1992           62        57         119
## 8   1993           55        41          96
## 9   1994           53        39          92
## 10  1995           50        41          91
## # ... with 20 more rows
…
